{
  "project_info": {
    "project_number": "90761651873",
    "firebase_url": "https://thecure-app.firebaseio.com",
    "project_id": "thecure-app",
    "storage_bucket": "thecure-app.appspot.com"
  },
  "client": [
    {
      "client_info": {
        "mobilesdk_app_id": "1:90761651873:android:063a85fff9cc37677ab2e0",
        "android_client_info": {
          "package_name": "com.cinsoftwares.fluterarch"
        }
      },
      "oauth_client": [
        {
          "client_id": "90761651873-2oejvs20v2m7jb8jteimd9q69mumq0im.apps.googleusercontent.com",
          "client_type": 3
        }
      ],
      "api_key": [
        {
          "current_key": "AIzaSyBuRMxMGHPvnQzNy_JVyK1mTwb4T7_0Y1c"
        }
      ],
      "services": {
        "appinvite_service": {
          "other_platform_oauth_client": [
            {
              "client_id": "90761651873-2oejvs20v2m7jb8jteimd9q69mumq0im.apps.googleusercontent.com",
              "client_type": 3
            }
          ]
        }
      }
    },
    {
      "client_info": {
        "mobilesdk_app_id": "1:90761651873:android:951ff10fbbed01657ab2e0",
        "android_client_info": {
          "package_name": "com.owebso.svs.xylemlern"
        }
      },
      "oauth_client": [
        {
          "client_id": "90761651873-2oejvs20v2m7jb8jteimd9q69mumq0im.apps.googleusercontent.com",
          "client_type": 3
        }
      ],
      "api_key": [
        {
          "current_key": "AIzaSyBuRMxMGHPvnQzNy_JVyK1mTwb4T7_0Y1c"
        }
      ],
      "services": {
        "appinvite_service": {
          "other_platform_oauth_client": [
            {
              "client_id": "90761651873-2oejvs20v2m7jb8jteimd9q69mumq0im.apps.googleusercontent.com",
              "client_type": 3
            }
          ]
        }
      }
    }
  ],
  "configuration_version": "1"
}